<?xml version="1.0" encoding="UTF-8"?>
<session version="1.0">
<refactoring comment="Delete resource &apos;gridlayout_v7&apos;" deleteContents="false" description="Delete resource &apos;gridlayout_v7&apos;" element1="/gridlayout_v7" flags="7" id="org.eclipse.ltk.core.refactoring.delete.resources" resources="1" stamp="1411341900776"/>
</session>